<mxfile host="app.diagrams.net" modified="2024-02-21T10:05:10.745Z" agent="Mozilla/5.0 (Windows NT 10.0; Win64; x64) AppleWebKit/537.36 (KHTML, like Gecko) Chrome/121.0.0.0 Safari/537.36" version="23.1.2" etag="z-Uod80ge0a2PR7mHdIz" type="gitlab">
  <diagram name="Página-1" id="hrp99kT0tR7tmBTvdvnG">
    <mxGraphModel>
      <root>
        <mxCell id="0" />
        <mxCell id="1" parent="0" />
      </root>
    </mxGraphModel>
  </diagram>
</mxfile>
